^E:\TEMP\ASTRO\MATÉRIEL\FAB\! ELECTRONIQUE\FAB MOTO FOCUS\! USB FOCUS\USB_FOCUS_REPO\DRIVER ASCOM\UFO.NET\USB_FOCUS DOTNET\USB_FOCUS\PROPERTIES\RESOURCES.RESX|E:\TEMP\ASTRO\MATÉRIEL\FAB\! ELECTRONIQUE\FAB MOTO FOCUS\! USB FOCUS\USB_FOCUS_REPO\DRIVER ASCOM\UFO.NET\USB_FOCUS DOTNET\USB_FOCUS\SETUPDIALOGFORM.RESX
E:\TEMP\ASTRO\MATéRIEL\FAB\! ELECTRONIQUE\FAB MOTO FOCUS\! USB FOCUS\USB_FOCUS_REPO\DRIVER ASCOM\UFO.NET\USB_FOCUS DOTNET\USB_FOCUS\OBJ\DEBUG\ASCOM.USB_FOCUS.PROPERTIES.RESOURCES.RESOURCES
E:\TEMP\ASTRO\MATéRIEL\FAB\! ELECTRONIQUE\FAB MOTO FOCUS\! USB FOCUS\USB_FOCUS_REPO\DRIVER ASCOM\UFO.NET\USB_FOCUS DOTNET\USB_FOCUS\OBJ\DEBUG\ASCOM.USB_FOCUS.SETUPDIALOGFORM.RESOURCES
