^E:\TEMP\ASTRO\MATéRIEL\FAB\! ELECTRONIQUE\FAB MOTO FOCUS\! USB FOCUS\USB_FOCUS_REPO\DRIVER ASCOM\UFO.NET\USB_FOCUS DOTNET\USB_FOCUS\PROPERTIES\RESOURCES.RESX
E:\TEMP\ASTRO\MATéRIEL\FAB\! ELECTRONIQUE\FAB MOTO FOCUS\! USB FOCUS\USB_FOCUS_REPO\DRIVER ASCOM\UFO.NET\USB_FOCUS DOTNET\USB_FOCUS\ASCOM.PNG
E:\TEMP\ASTRO\MATéRIEL\FAB\! ELECTRONIQUE\FAB MOTO FOCUS\! USB FOCUS\USB_FOCUS_REPO\DRIVER ASCOM\UFO.NET\USB_FOCUS DOTNET\USB_FOCUS\ASCOM.ICO
C:\PROGRAM FILES\MICROSOFT SDKS\WINDOWS\V7.0A\BIN\RESGEN.EXE.CONFIG
C:\WINDOWS\MICROSOFT.NET\FRAMEWORK\V2.0.50727\FR\MSCORRC.DLL
^E:\TEMP\ASTRO\MATéRIEL\FAB\! ELECTRONIQUE\FAB MOTO FOCUS\! USB FOCUS\USB_FOCUS_REPO\DRIVER ASCOM\UFO.NET\USB_FOCUS DOTNET\USB_FOCUS\SETUPDIALOGFORM.RESX
